…
#example
speedAnalysis(500, 400)
```

    ## # A tibble: 60 x 6
    ## # Groups:   speedPace [3]
    ##    speedPace type  latitude longitude halfAngle speed
    ##    <chr>     <chr>    <dbl>     <dbl>     <dbl> <dbl>
    ##  1 Low       S          -13        56        40   287
    ##  2 Low       S            1        59        23   388
    ##  3 Low       S          -43       154        18   360
    ##  4 Low       S          -35      -160        26   383
    ##  5 Medium    S          -38      -174        22   451
    ##  6 Medium    S          -40      -160        18   481
    ##  7 Low       S            8       -94        14   395
    ##  8 Low       S          -39      -153        10   392
    ##  9 High      C          -54        NA        29   572
    ## 10 High      C          -29      -117        39   652
    ## # ... with 50 more rows
…
#example
solarFlare("flrID","sourceLocation", "RegionNum", "classType")
```

    ## Warning: The `x` argument of `as_tibble.matrix()` must have unique column names if `.name_repair` is omitted as of tibble 2.0.0.
    ## Using compatibility `.name_repair`.

    ## # A tibble: 575 x 4
    ##    flrID                       sourceLocation RegionNum classType
    ##    <chr>                       <chr>          <chr>     <chr>    
    ##  1 2010-04-03T09:04:00-FLR-001 S25W03         11059     B7.4     
    ##  2 2010-06-12T00:30:00-FLR-001 N22W43         11081     M2.0     
    ##  3 2010-08-07T17:55:00-FLR-001 N14E37         11093     M1.0     
    ##  4 2010-08-14T09:38:00-FLR-001 N11W65         11093     C4.4     
    ##  5 2010-08-18T04:45:00-FLR-001 N18W88         11099     C4.5     
    ##  6 2010-10-16T19:07:00-FLR-001 S20W26         11112     M2.9     
    ##  7 2011-01-28T00:44:00-FLR-001 N17W88         11149     M1.3     
    ##  8 2011-02-09T01:23:00-FLR-001 N16W70         11153     M1.9     
    ##  9 2011-02-13T17:28:00-FLR-001 S20E04         11158     M6.6     
    ## 10 2011-02-14T17:20:00-FLR-001 S20W04         11158     M2.2     
    ## # ... with 565 more rows
…
#example
fireballDate("2020-01-01 12:00:00")
```

    ## # A tibble: 28 x 9
    ##    date            energy `impact-e` lat   `lat-dir` lon   `lon-dir` alt   vel  
    ##    <chr>           <chr>  <chr>      <chr> <chr>     <chr> <chr>     <chr> <chr>
    ##  1 2021-09-29 10:~ 13.7   0.4        53.9  N         148.0 W         28.0  21.2 
    ##  2 2021-09-06 17:~ 3.1    0.11       2.1   S         111.8 W         26.0  13.6 
    ##  3 2021-07-29 13:~ 3.7    0.13       42.4  N         98.4  E         26.4  14.7 
    ##  4 2021-07-05 03:~ 74     1.8        44.3  N         164.2 W         43.4  15.7 
    ##  5 2021-05-06 05:~ 2.1    0.076      34.7  S         141.0 E         31.0  26.6 
    ##  6 2021-04-13 02:~ 2.1    0.076      26.8  N         79.1  W         44.4  14.1 
    ##  7 2020-12-22 23:~ 489.8  9.5        31.9  N         96.2  E         35.5  13.6 
    ##  8 2020-11-28 16:~ 2.6    0.092      33.3  N         135.1 E         28.1  19.6 
    ##  9 2020-11-07 21:~ 11.1   0.33       59.8  N         16.8  E         22.3  16.7 
    ## 10 2020-10-26 15:~ 11.4   0.34       5.9   S         160.4 E         28.5  17.6 
    ## # ... with 18 more rows
…
